{
  type: "SCREEN_EXTENSION",
  version: "0.0.1",
  _verificationText: "VerificationText",
  dataSources: {},
  extension: {
    screenClassName: "sc.pricing.terapricezonesearchscreen.ClassTeraZoneSearchResults",
    className: "sc.pricing.terapricezonesearchscreenExtn.ClassTeraZoneSearchResultsExtension",
    overlays: [{
      op: "insert",
      ownerId: "seaEditorGridResults",
      property: "columns",
      refId: "gridClmStartDate",
      pos: "before",
      config: {
        "sciId": {
          "id": "sciId",
          "value": "extn_zoneName",
          "type": "string"
        },
        "header": {
          "id": "header",
          "value": "Zone",
          "type": "string"
        },
        "sortable": {
          "id": "sortable",
          "value": "true",
          "type": "boolean"
        },
        "width": {
          "id": "width",
          "value": "70",
          "type": "number"
        },
        "css": {
          "id": "css",
          "value": "text-align: center;",
          "type": "string"
        },
        "dataIndex": {
          "id": "dataIndex",
          "value": "PricelistName",
          "type": "string"
        },
        "renderer": {
          "id": "renderer",
          "value": "function(pricelistName) {     return Ext.util.Format.substr(pricelistName, 8, 2);   }",
          "type": "expr"
        },
        "bindingData": {
          "id": "bindingData",
          "value": {
            "sFieldConfig": {
              "id": "sFieldConfig",
              "value": {
                "mapping": {
                  "id": "mapping",
                  "value": "PricelistHeader.PricelistName",
                  "type": "string"
                },
                "defid": "object"
              },
              "type": "object"
            },
            "defid": "object"
          },
          "type": "object"
        },
        "defid": "grid-column"
      }
    },
    {
      op: "insert",
      ownerId: "seaEditorGridResults",
      property: "columns",
      refId: "gridClmStartDate",
      pos: "before",
      config: {
        "sciId": {
          "id": "sciId",
          "value": "extn_Service_Type",
          "type": "string"
        },
        "header": {
          "id": "header",
          "value": "Service Type",
          "type": "string"
        },
        "sortable": {
          "id": "sortable",
          "value": "true",
          "type": "boolean"
        },
        "width": {
          "id": "width",
          "value": "100",
          "type": "number"
        },
        "css": {
          "id": "css",
          "value": "text-align: center;",
          "type": "string"
        },
        "renderer": {
          "id": "renderer",
          "value": "function(pricelistNameVar) {     return Ext.util.Format.substr(pricelistNameVar, 4, 3);   }",
          "type": "expr"
        },
        "dataIndex": {
          "id": "dataIndex",
          "value": "PricelistHeader.PricelistName",
          "type": "string"
        },
        "bindingData": {
          "id": "bindingData",
          "value": {
            "sFieldConfig": {
              "id": "sFieldConfig",
              "value": {
                "mapping": {
                  "id": "mapping",
                  "value": "PricelistHeader.PricelistName",
                  "type": "string"
                },
                "defid": "object"
              },
              "type": "object"
            },
            "defid": "object"
          },
          "type": "object"
        },
        "defid": "grid-column"
      }
    },
    {
      op: "insert",
      ownerId: "seaEditorGridResults",
      property: "columns",
      refId: "gridClmCurrency",
      pos: "before",
      config: {
        "sciId": {
          "id": "sciId",
          "value": "extn_RepairPrice",
          "type": "string"
        },
        "header": {
          "id": "header",
          "value": "Repair Price",
          "type": "string"
        },
        "sortable": {
          "id": "sortable",
          "value": "true",
          "type": "boolean"
        },
        "dataIndex": {
          "id": "dataIndex",
          "value": "ListPrice",
          "type": "string"
        },
        "width": {
          "id": "width",
          "value": "70",
          "type": "number"
        },
        "css": {
          "id": "css",
          "value": "text-align: right;",
          "type": "string"
        },
        "bindingData": {
          "id": "bindingData",
          "value": {
            "sFieldConfig": {
              "id": "sFieldConfig",
              "value": {
                "mapping": {
                  "id": "mapping",
                  "value": "ListPrice",
                  "type": "string"
                },
                "defid": "object"
              },
              "type": "object"
            },
            "defid": "object"
          },
          "type": "object"
        },
        "defid": "grid-column"
      }
    },
    {
      op: "insert",
      ownerId: "seaEditorGridResults",
      property: "columns",
      refId: "gridClmCurrency",
      pos: "before",
      config: {
        "sciId": {
          "id": "sciId",
          "value": "extn_ExpeditePrice",
          "type": "string"
        },
        "header": {
          "id": "header",
          "value": "Expedite Price",
          "type": "string"
        },
        "sortable": {
          "id": "sortable",
          "value": "true",
          "type": "boolean"
        },
        "width": {
          "id": "width",
          "value": "100",
          "type": "number"
        },
        "css": {
          "id": "css",
          "value": "text-align: right;",
          "type": "string"
        },
        "dataIndex": {
          "id": "dataIndex",
          "value": "ExpiditingPrice",
          "type": "string"
        },
        "bindingData": {
          "id": "bindingData",
          "value": {
            "sFieldConfig": {
              "id": "sFieldConfig",
              "value": {
                "mapping": {
                  "id": "mapping",
                  "value": "Extn.ExpiditingPrice",
                  "type": "string"
                },
                "defid": "object"
              },
              "type": "object"
            },
            "defid": "object"
          },
          "type": "object"
        },
        "defid": "grid-column"
      }
    },
    {
      op: "insert",
      ownerId: "seaEditorGridResults",
      property: "columns",
      refId: "gridClmCurrency",
      pos: "before",
      config: {
        "sciId": {
          "id": "sciId",
          "value": "extn_HandlingCharges",
          "type": "string"
        },
        "header": {
          "id": "header",
          "value": "Handling Charge",
          "type": "string"
        },
        "sortable": {
          "id": "sortable",
          "value": "true",
          "type": "boolean"
        },
        "width": {
          "id": "width",
          "value": "100",
          "type": "number"
        },
        "css": {
          "id": "css",
          "value": "text-align: right;",
          "type": "string"
        },
        "dataIndex": {
          "id": "dataIndex",
          "value": "HandlingCharge",
          "type": "string"
        },
        "bindingData": {
          "id": "bindingData",
          "value": {
            "sFieldConfig": {
              "id": "sFieldConfig",
              "value": {
                "mapping": {
                  "id": "mapping",
                  "value": "Extn.HandlingCharge",
                  "type": "string"
                },
                "defid": "object"
              },
              "type": "object"
            },
            "defid": "object"
          },
          "type": "object"
        },
        "defid": "grid-column"
      }
    },
    {
      op: "change",
      sciId: "screenTeraZone",
      config: {
        "defid": "screen"
      }
    },
    {
      op: "change",
      sciId: "gridClmListName",
      config: {
        "bindingData": {
          "id": "bindingData",
          "value": {
            "sFieldConfig": {
              "id": "sFieldConfig",
              "value": {
                "mapping": {
                  "id": "mapping",
                  "value": "PricelistHeader.PricelistName",
                  "type": "string"
                },
                "defid": "object"
              },
              "type": "object"
            },
            "defid": "object"
          },
          "type": "object"
        },
        "width": {
          "id": "width",
          "value": "120",
          "type": "number"
        },
        "defid": "grid-column"
      }
    },
    {
      op: "change",
      sciId: "gridClmStartDate",
      config: {
        "hidden": {
          "id": "hidden",
          "value": "true",
          "type": "boolean"
        },
        "bindingData": {
          "id": "bindingData",
          "value": {
            "sFieldConfig": {
              "id": "sFieldConfig",
              "value": {
                "mapping": {
                  "id": "mapping",
                  "value": "PricelistHeader.StartDateActive",
                  "type": "string"
                },
                "defid": "object"
              },
              "type": "object"
            },
            "defid": "object"
          },
          "type": "object"
        },
        "defid": "grid-column"
      }
    },
    {
      op: "change",
      sciId: "gridClmEndDate",
      config: {
        "hidden": {
          "id": "hidden",
          "value": "true",
          "type": "boolean"
        },
        "bindingData": {
          "id": "bindingData",
          "value": {
            "sFieldConfig": {
              "id": "sFieldConfig",
              "value": {
                "mapping": {
                  "id": "mapping",
                  "value": "PricelistHeader.EndDateActive",
                  "type": "string"
                },
                "defid": "object"
              },
              "type": "object"
            },
            "defid": "object"
          },
          "type": "object"
        },
        "defid": "grid-column"
      }
    },
    {
      op: "change",
      sciId: "gridClmCurrency",
      config: {
        "hidden": {
          "id": "hidden",
          "value": "true",
          "type": "boolean"
        },
        "bindingData": {
          "id": "bindingData",
          "value": {
            "defid": "object"
          },
          "type": "object"
        },
        "defid": "grid-column"
      }
    },
    {
      op: "change",
      sciId: "gridClmStatus",
      config: {
        "hidden": {
          "id": "hidden",
          "value": "true",
          "type": "boolean"
        },
        "bindingData": {
          "id": "bindingData",
          "value": {
            "sFieldConfig": {
              "id": "sFieldConfig",
              "value": {
                "mapping": {
                  "id": "mapping",
                  "value": "PricelistHeader.PricingStatus",
                  "type": "string"
                },
                "defid": "object"
              },
              "type": "object"
            },
            "defid": "object"
          },
          "type": "object"
        },
        "defid": "grid-column"
      }
    },
    {
      op: "change",
      sciId: "seaGridClmHeaderKey",
      config: {
        "bindingData": {
          "id": "bindingData",
          "value": {
            "sFieldConfig": {
              "id": "sFieldConfig",
              "value": {
                "mapping": {
                  "id": "mapping",
                  "value": "PricelistHeader.PricelistHeaderKey",
                  "type": "string"
                },
                "defid": "object"
              },
              "type": "object"
            },
            "defid": "object"
          },
          "type": "object"
        },
        "defid": "grid-column"
      }
    }]
  }
}