{
  type: "SCREEN_EXTENSION",
  version: "0.0.1",
  _verificationText: "VerificationText",
  dataSources: {},
  extension: {
    screenClassName: "sc.sbc.pricing.pricelist.pricelistsummaryresults",
    className: "sc.pricing.terapricelistsummaryresultsextn.pricelistsummaryresultsExtension",
    overlays: [{
      op: "insert",
      ownerId: "seaEditorGridItems",
      property: "columns",
      refId: "seaGridClmQtyTiers",
      pos: "before",
      config: {
        "sciId": {
          "id": "sciId",
          "value": "extn_ExpeditingPrice",
          "type": "string"
        },
        "header": {
          "id": "header",
          "value": "Expedite Price",
          "type": "string"
        },
        "sortable": {
          "id": "sortable",
          "value": "true",
          "type": "boolean"
        },
        "width": {
          "id": "width",
          "value": "70",
          "type": "number"
        },
        "hideable": {
          "id": "hideable",
          "value": "false",
          "type": "boolean"
        },
        "css": {
          "id": "css",
          "value": "text-align: right;",
          "type": "string"
        },
        "renderer": {
          "id": "renderer",
          "value": "this.getExpeditePriceWithCurrency",
          "type": "expr"
        },
        "bindingData": {
          "id": "bindingData",
          "value": {
            "tAttrBinding": {
              "id": "tAttrBinding",
              "value": "Extn.ExpiditingPrice",
              "type": "string"
            },
            "sFieldConfig": {
              "id": "sFieldConfig",
              "value": {
                "mapping": {
                  "id": "mapping",
                  "value": "Extn.ExpiditingPrice",
                  "type": "string"
                },
                "defid": "object"
              },
              "type": "object"
            },
            "defid": "object"
          },
          "type": "object"
        },
        "defid": "grid-column"
      }
    },
    {
      op: "insert",
      ownerId: "seaEditorGridItems",
      property: "columns",
      refId: "seaGridClmQtyTiers",
      pos: "before",
      config: {
        "sciId": {
          "id": "sciId",
          "value": "extn_HandlingCharge",
          "type": "string"
        },
        "header": {
          "id": "header",
          "value": "Handling Charge",
          "type": "string"
        },
        "sortable": {
          "id": "sortable",
          "value": "true",
          "type": "boolean"
        },
        "width": {
          "id": "width",
          "value": "70",
          "type": "number"
        },
        "hideable": {
          "id": "hideable",
          "value": "false",
          "type": "boolean"
        },
        "css": {
          "id": "css",
          "value": "text-align: right;",
          "type": "string"
        },
        "renderer": {
          "id": "renderer",
          "value": "this.getHandlingChargeWithCurrency",
          "type": "expr"
        },
        "bindingData": {
          "id": "bindingData",
          "value": {
            "tAttrBinding": {
              "id": "tAttrBinding",
              "value": "Extn.HandlingCharge",
              "type": "string"
            },
            "sFieldConfig": {
              "id": "sFieldConfig",
              "value": {
                "mapping": {
                  "id": "mapping",
                  "value": "Extn.HandlingCharge",
                  "type": "string"
                },
                "defid": "object"
              },
              "type": "object"
            },
            "defid": "object"
          },
          "type": "object"
        },
        "defid": "grid-column"
      }
    },
    {
      op: "change",
      sciId: "screen",
      config: {
        "defid": "screen"
      }
    },
    {
      op: "change",
      sciId: "seaGridClmQtyTiers",
      config: {
        "hidden": {
          "id": "hidden",
          "value": "true",
          "type": "boolean"
        },
        "defid": "grid-column"
      }
    },
    {
      op: "change",
      sciId: "seaGridClmCalculatedPrice",
      config: {
        "bindingData": {
          "id": "bindingData",
          "value": {
            "sFieldConfig": {
              "id": "sFieldConfig",
              "value": {
                "mapping": {
                  "id": "mapping",
                  "value": "CalculatedPrice",
                  "type": "string"
                },
                "defid": "object"
              },
              "type": "object"
            },
            "defid": "object"
          },
          "type": "object"
        },
        "defid": "grid-column"
      }
    },
    {
      op: "change",
      sciId: "seaGridClmEffectiveDate",
      config: {
        "hidden": {
          "id": "hidden",
          "value": "true",
          "type": "boolean"
        },
        "defid": "grid-column"
      }
    },
    {
      op: "change",
      sciId: "seaGridClmListPrice",
      config: {
        "header": {
          "id": "header",
          "value": "Repair Price",
          "type": "string"
        },
        "defid": "grid-column"
      }
    }]
  }
}