{
 "model": {
  "sciId": {
   "id": "sciId",
   "value": "screenTeraZone",
   "type": "string"
  },
  "className": {
   "id": "className",
   "value": "sc.pricing.terapricezonesearchscreen.ClassTeraZoneSearchResults",
   "type": "string"
  },
  "superclassName": {
   "id": "superclassName",
   "value": "sc.plat.ui.ExtensibleScreen",
   "type": "string"
  },
  "regXtype": {
   "id": "regXtype",
   "value": "terazonepricelistsearchresults",
   "type": "string"
  },
  "header": {
   "id": "header",
   "value": "false",
   "type": "boolean"
  },
  "layout": {
   "id": "layout",
   "value": "anchor",
   "type": "string"
  },
  "autoScroll": {
   "id": "autoScroll",
   "value": "true",
   "type": "boolean"
  },
  "items": {
   "id": "items",
   "value": [{
    "id": "",
    "value": {
     "sciId": {
      "id": "sciId",
      "value": "seaEditorGridResults",
      "type": "string"
     },
     "title": {
      "id": "title",
      "value": "this.b_PriceLists",
      "type": "expr"
     },
     "clicksToEdit": {
      "id": "clicksToEdit",
      "value": "1",
      "type": "number"
     },
     "autoHeight": {
      "id": "autoHeight",
      "value": "true",
      "type": "boolean"
     },
     "tbar": {
      "id": "tbar",
      "value": [{
       "id": "",
       "value": {
        "sciId": {
         "id": "sciId",
         "value": "seaTBttnCopy",
         "type": "string"
        },
        "text": {
         "id": "text",
         "value": "this.b_Copy",
         "type": "expr"
        },
        "handler": {
         "id": "handler",
         "value": "this.copyBttnHandler",
         "type": "expr"
        },
        "scope": {
         "id": "scope",
         "value": "this",
         "type": "expr"
        },
        "minWidth": {
         "id": "minWidth",
         "value": "80",
         "type": "number"
        },
        "disabled": {
         "id": "disabled",
         "value": "true",
         "type": "boolean"
        },
        "defid": "button"
       },
       "type": "button"
      }],
      "type": "array"
     },
     "columns": {
      "id": "columns",
      "value": [{
       "id": "",
       "value": "this.checkBoxSelectionModel",
       "type": "expr"
      },
      {
       "id": "",
       "value": {
        "sciId": {
         "id": "sciId",
         "value": "gridClmListName",
         "type": "string"
        },
        "header": {
         "id": "header",
         "value": "this.b_pricelistnameHeader",
         "type": "expr"
        },
        "sortable": {
         "id": "sortable",
         "value": "true",
         "type": "boolean"
        },
        "dataIndex": {
         "id": "dataIndex",
         "value": "PricelistName",
         "type": "string"
        },
        "width": {
         "id": "width",
         "value": "230",
         "type": "number"
        },
        "renderer": {
         "id": "renderer",
         "value": "this.showLinksWithImageInColumns",
         "type": "expr"
        },
        "id": {
         "id": "id",
         "value": "sbcautoexpandcolumn",
         "type": "string"
        },
        "bindingData": {
         "id": "bindingData",
         "value": {
          "sFieldConfig": {
           "id": "sFieldConfig",
           "value": {
            "mapping": {
             "id": "mapping",
             "value": "PricelistName",
             "type": "string"
            },
            "defid": "object"
           },
           "type": "object"
          },
          "defid": "object"
         },
         "type": "object"
        },
        "defid": "grid-column"
       },
       "type": "grid-column"
      },
      {
       "id": "",
       "value": {
        "sciId": {
         "id": "sciId",
         "value": "gridClmStartDate",
         "type": "string"
        },
        "header": {
         "id": "header",
         "value": "this.EffectiveStartDate",
         "type": "expr"
        },
        "sortable": {
         "id": "sortable",
         "value": "true",
         "type": "boolean"
        },
        "dataIndex": {
         "id": "dataIndex",
         "value": "StartDateActive",
         "type": "string"
        },
        "width": {
         "id": "width",
         "value": "160",
         "type": "number"
        },
        "renderer": {
         "id": "renderer",
         "value": "this.returnFormattedStartDate",
         "type": "expr"
        },
        "css": {
         "id": "css",
         "value": "sbc-cellValue-AlignLeft",
         "type": "string"
        },
        "bindingData": {
         "id": "bindingData",
         "value": {
          "sFieldConfig": {
           "id": "sFieldConfig",
           "value": {
            "mapping": {
             "id": "mapping",
             "value": "StartDateActive",
             "type": "string"
            },
            "defid": "object"
           },
           "type": "object"
          },
          "defid": "object"
         },
         "type": "object"
        },
        "defid": "grid-column"
       },
       "type": "grid-column"
      },
      {
       "id": "",
       "value": {
        "sciId": {
         "id": "sciId",
         "value": "gridClmEndDate",
         "type": "string"
        },
        "header": {
         "id": "header",
         "value": "this.EffectiveEndDate",
         "type": "expr"
        },
        "sortable": {
         "id": "sortable",
         "value": "true",
         "type": "boolean"
        },
        "dataIndex": {
         "id": "dataIndex",
         "value": "EndDateActive",
         "type": "string"
        },
        "width": {
         "id": "width",
         "value": "160",
         "type": "number"
        },
        "renderer": {
         "id": "renderer",
         "value": "this.returnFormattedEndDate",
         "type": "expr"
        },
        "css": {
         "id": "css",
         "value": "sbc-cellValue-AlignLeft",
         "type": "string"
        },
        "bindingData": {
         "id": "bindingData",
         "value": {
          "sFieldConfig": {
           "id": "sFieldConfig",
           "value": {
            "mapping": {
             "id": "mapping",
             "value": "EndDateActive",
             "type": "string"
            },
            "defid": "object"
           },
           "type": "object"
          },
          "defid": "object"
         },
         "type": "object"
        },
        "defid": "grid-column"
       },
       "type": "grid-column"
      },
      {
       "id": "",
       "value": {
        "sciId": {
         "id": "sciId",
         "value": "gridClmCurrency",
         "type": "string"
        },
        "header": {
         "id": "header",
         "value": "this.b_EnterCurrency",
         "type": "expr"
        },
        "sortable": {
         "id": "sortable",
         "value": "true",
         "type": "boolean"
        },
        "dataIndex": {
         "id": "dataIndex",
         "value": "Currency",
         "type": "string"
        },
        "width": {
         "id": "width",
         "value": "80",
         "type": "number"
        },
        "renderer": {
         "id": "renderer",
         "value": "this.getCurrencyDesc",
         "type": "expr"
        },
        "defid": "grid-column"
       },
       "type": "grid-column"
      },
      {
       "id": "",
       "value": {
        "sciId": {
         "id": "sciId",
         "value": "gridClmStatus",
         "type": "string"
        },
        "header": {
         "id": "header",
         "value": "this.Status",
         "type": "expr"
        },
        "sortable": {
         "id": "sortable",
         "value": "true",
         "type": "boolean"
        },
        "dataIndex": {
         "id": "dataIndex",
         "value": "PricingStatus",
         "type": "string"
        },
        "renderer": {
         "id": "renderer",
         "value": "this.getStatusDesc",
         "type": "expr"
        },
        "width": {
         "id": "width",
         "value": "95",
         "type": "number"
        },
        "bindingData": {
         "id": "bindingData",
         "value": {
          "sFieldConfig": {
           "id": "sFieldConfig",
           "value": {
            "mapping": {
             "id": "mapping",
             "value": "PricingStatus",
             "type": "string"
            },
            "defid": "object"
           },
           "type": "object"
          },
          "defid": "object"
         },
         "type": "object"
        },
        "defid": "grid-column"
       },
       "type": "grid-column"
      },
      {
       "id": "",
       "value": {
        "sciId": {
         "id": "sciId",
         "value": "seaGridClmHeaderKey",
         "type": "string"
        },
        "header": {
         "id": "header",
         "value": "Column 5",
         "type": "string"
        },
        "sortable": {
         "id": "sortable",
         "value": "true",
         "type": "boolean"
        },
        "hidden": {
         "id": "hidden",
         "value": "true",
         "type": "boolean"
        },
        "hideable": {
         "id": "hideable",
         "value": "false",
         "type": "boolean"
        },
        "dataIndex": {
         "id": "dataIndex",
         "value": "PricelistHeaderKey",
         "type": "string"
        },
        "bindingData": {
         "id": "bindingData",
         "value": {
          "sFieldConfig": {
           "id": "sFieldConfig",
           "value": {
            "mapping": {
             "id": "mapping",
             "value": "PricelistHeaderKey",
             "type": "string"
            },
            "defid": "object"
           },
           "type": "object"
          },
          "defid": "object"
         },
         "type": "object"
        },
        "defid": "grid-column"
       },
       "type": "grid-column"
      }],
      "type": "array"
     },
     "selModel": {
      "id": "selModel",
      "value": "this.checkBoxSelectionModel",
      "type": "expr"
     },
     "collapsible": {
      "id": "collapsible",
      "value": "false",
      "type": "boolean"
     },
     "titleCollapse": {
      "id": "titleCollapse",
      "value": "true",
      "type": "boolean"
     },
     "stripeRows": {
      "id": "stripeRows",
      "value": "true",
      "type": "boolean"
     },
     "bbar": {
      "id": "bbar",
      "value": "this.pagingToolBar",
      "type": "expr"
     },
     "sctype": {
      "id": "sctype",
      "value": "GridPanel",
      "type": "string"
     },
     "border": {
      "id": "border",
      "value": "true",
      "type": "boolean"
     },
     "bindingData": {
      "id": "bindingData",
      "value": {
       "sourceBinding": {
        "id": "sourceBinding",
        "value": "getPriceListOutput:PricelistLineList.PricelistLine",
        "type": "string"
       },
       "pagination": {
        "id": "pagination",
        "value": {
         "strategy": {
          "id": "strategy",
          "value": "NEXTPAGE",
          "type": "string"
         },
         "url": {
          "id": "url",
          "value": "this.getUrl()",
          "type": "expr"
         },
         "pageSize": {
          "id": "pageSize",
          "value": "15",
          "type": "number"
         },
         "root": {
          "id": "root",
          "value": "PricelistHeaderList.PricelistHeader",
          "type": "string"
         },
         "defid": "object"
        },
        "type": "object"
       },
       "defid": "object"
      },
      "type": "object"
     },
     "listeners": {
      "id": "listeners",
      "value": {
       "scope": {
        "id": "scope",
        "value": "this",
        "type": "expr"
       },
       "cellclick": {
        "id": "cellclick",
        "value": "this.openSummary",
        "type": "expr"
       },
       "rowdblclick": {
        "id": "rowdblclick",
        "value": "this.handleCellDoubleClick",
        "type": "expr"
       },
       "defid": "listeners"
      },
      "type": "object"
     },
     "defid": "editorgrid"
    },
    "type": "editorgrid"
   }],
   "type": "array"
  },
  "border": {
   "id": "border",
   "value": "false",
   "type": "boolean"
  },
  "autoWidth": {
   "id": "autoWidth",
   "value": "true",
   "type": "boolean"
  },
  "defid": "screen"
 },
 "version": "0.3.0b",
 "type": "SCREEN",
 "dataSources": {}
}