{
 "model": {
  "sciId": {
   "id": "sciId",
   "value": "teraSystemAttributesNewScreenSCIID",
   "type": "string"
  },
  "className": {
   "id": "className",
   "value": "sc.item.terasystemattributesnewscreen.ClassTeraSystemAttributesScreen",
   "type": "string"
  },
  "superclassName": {
   "id": "superclassName",
   "value": "sc.plat.ui.ExtensibleScreen",
   "type": "string"
  },
  "regXtype": {
   "id": "regXtype",
   "value": "teraSystemTypeAttributesRegex",
   "type": "string"
  },
  "header": {
   "id": "header",
   "value": "false",
   "type": "boolean"
  },
  "layout": {
   "id": "layout",
   "value": "anchor",
   "type": "string"
  },
  "autoScroll": {
   "id": "autoScroll",
   "value": "true",
   "type": "boolean"
  },
  "items": {
   "id": "items",
   "value": [{
    "id": "",
    "value": {
     "sciId": {
      "id": "sciId",
      "value": "seaMainPanel",
      "type": "string"
     },
     "layout": {
      "id": "layout",
      "value": "anchor",
      "type": "string"
     },
     "items": {
      "id": "items",
      "value": [{
       "id": "",
       "value": {
        "sciId": {
         "id": "sciId",
         "value": "seaCustomPrimaryInfoPanel",
         "type": "string"
        },
        "xtype": {
         "id": "xtype",
         "value": "seaItemPrimaryInfo",
         "type": "string"
        },
        "text": {
         "id": "text",
         "value": "custom_component",
         "type": "string"
        },
        "defid": "customct"
       },
       "type": "customct"
      },
      {
       "id": "",
       "value": {
        "sciId": {
         "id": "sciId",
         "value": "seaStandardPanel",
         "type": "string"
        },
        "layout": {
         "id": "layout",
         "value": "anchor",
         "type": "string"
        },
        "items": {
         "id": "items",
         "value": [{
          "id": "",
          "value": {
           "sciId": {
            "id": "sciId",
            "value": "seaStandardClassifications",
            "type": "string"
           },
           "layout": {
            "id": "layout",
            "value": "table",
            "type": "string"
           },
           "title": {
            "id": "title",
            "value": "this.b_Standard_Classifications",
            "type": "expr"
           },
           "items": {
            "id": "items",
            "value": [{
             "id": "",
             "value": {
              "sciId": {
               "id": "sciId",
               "value": "seaHarmonizedCodeLabel",
               "type": "string"
              },
              "text": {
               "id": "text",
               "value": "this.b_HarmonizedCode_lbl",
               "type": "expr"
              },
              "cls": {
               "id": "cls",
               "value": "sc-plat-label",
               "type": "string"
              },
              "defid": "label"
             },
             "type": "label"
            },
            {
             "id": "",
             "value": {
              "sciId": {
               "id": "sciId",
               "value": "seaHarmonizedCodeTrigger",
               "type": "string"
              },
              "triggerClass": {
               "id": "triggerClass",
               "value": "x-form-search-trigger",
               "type": "string"
              },
              "hideTrigger": {
               "id": "hideTrigger",
               "value": "this.hideTrigger('HarmonizedCode')",
               "type": "expr"
              },
              "readOnly": {
               "id": "readOnly",
               "value": "this.readOnly('HarmonizedCode')",
               "type": "expr"
              },
              "ctCls": {
               "id": "ctCls",
               "value": "sc-plat-triggerfield-text",
               "type": "string"
              },
              "onTriggerClick": {
               "id": "onTriggerClick",
               "value": "this.loadClassificationLookup",
               "type": "expr"
              },
              "fieldName": {
               "id": "fieldName",
               "value": "HarmonizedCode",
               "type": "string"
              },
              "scope": {
               "id": "scope",
               "value": "this",
               "type": "expr"
              },
              "bindingData": {
               "id": "bindingData",
               "value": {
                "sourceBinding": {
                 "id": "sourceBinding",
                 "value": "getItemDetails:Item.ClassificationCodes.HarmonizedCode",
                 "type": "string"
                },
                "targetBinding": {
                 "id": "targetBinding",
                 "value": [{
                  "id": "",
                  "value": "getManageItem:ItemList.Item.ClassificationCodes.HarmonizedCode",
                  "type": "string"
                 }],
                 "type": "array"
                },
                "defid": "object"
               },
               "type": "object"
              },
              "defid": "trigger"
             },
             "type": "trigger"
            },
            {
             "id": "",
             "value": {
              "sciId": {
               "id": "sciId",
               "value": "seaScheduleCodeLabel",
               "type": "string"
              },
              "text": {
               "id": "text",
               "value": "this.b_ScheduleCode_lbl",
               "type": "expr"
              },
              "cls": {
               "id": "cls",
               "value": "sc-plat-label",
               "type": "string"
              },
              "defid": "label"
             },
             "type": "label"
            },
            {
             "id": "",
             "value": {
              "sciId": {
               "id": "sciId",
               "value": "seaScheduleCodeTrigger",
               "type": "string"
              },
              "triggerClass": {
               "id": "triggerClass",
               "value": "x-form-search-trigger",
               "type": "string"
              },
              "hideTrigger": {
               "id": "hideTrigger",
               "value": "this.hideTrigger('Schedule_B_Code')",
               "type": "expr"
              },
              "readOnly": {
               "id": "readOnly",
               "value": "this.readOnly('Schedule_B_Code')",
               "type": "expr"
              },
              "ctCls": {
               "id": "ctCls",
               "value": "sc-plat-triggerfield-text",
               "type": "string"
              },
              "fieldName": {
               "id": "fieldName",
               "value": "Schedule_B_Code",
               "type": "string"
              },
              "onTriggerClick": {
               "id": "onTriggerClick",
               "value": "this.loadClassificationLookup",
               "type": "expr"
              },
              "scope": {
               "id": "scope",
               "value": "this",
               "type": "expr"
              },
              "bindingData": {
               "id": "bindingData",
               "value": {
                "sourceBinding": {
                 "id": "sourceBinding",
                 "value": "getItemDetails:Item.ClassificationCodes.Schedule_B_Code",
                 "type": "string"
                },
                "targetBinding": {
                 "id": "targetBinding",
                 "value": [{
                  "id": "",
                  "value": "getManageItem:ItemList.Item.ClassificationCodes.Schedule_B_Code",
                  "type": "string"
                 }],
                 "type": "array"
                },
                "defid": "object"
               },
               "type": "object"
              },
              "defid": "trigger"
             },
             "type": "trigger"
            },
            {
             "id": "",
             "value": {
              "sciId": {
               "id": "sciId",
               "value": "seaCommodityCodeLabel",
               "type": "string"
              },
              "text": {
               "id": "text",
               "value": "this.b_CommodityCode_lbl",
               "type": "expr"
              },
              "cls": {
               "id": "cls",
               "value": "sc-plat-label",
               "type": "string"
              },
              "defid": "label"
             },
             "type": "label"
            },
            {
             "id": "",
             "value": {
              "sciId": {
               "id": "sciId",
               "value": "seaCommodityCodeTrigger",
               "type": "string"
              },
              "triggerClass": {
               "id": "triggerClass",
               "value": "x-form-search-trigger",
               "type": "string"
              },
              "hideTrigger": {
               "id": "hideTrigger",
               "value": "this.hideTrigger('CommodityCode')",
               "type": "expr"
              },
              "readOnly": {
               "id": "readOnly",
               "value": "this.readOnly('CommodityCode')",
               "type": "expr"
              },
              "ctCls": {
               "id": "ctCls",
               "value": "sc-plat-triggerfield-text",
               "type": "string"
              },
              "fieldName": {
               "id": "fieldName",
               "value": "CommodityCode",
               "type": "string"
              },
              "onTriggerClick": {
               "id": "onTriggerClick",
               "value": "this.loadClassificationLookup",
               "type": "expr"
              },
              "scope": {
               "id": "scope",
               "value": "this",
               "type": "expr"
              },
              "bindingData": {
               "id": "bindingData",
               "value": {
                "sourceBinding": {
                 "id": "sourceBinding",
                 "value": "getItemDetails:Item.ClassificationCodes.CommodityCode",
                 "type": "string"
                },
                "targetBinding": {
                 "id": "targetBinding",
                 "value": [{
                  "id": "",
                  "value": "getManageItem:ItemList.Item.ClassificationCodes.CommodityCode",
                  "type": "string"
                 }],
                 "type": "array"
                },
                "defid": "object"
               },
               "type": "object"
              },
              "defid": "trigger"
             },
             "type": "trigger"
            },
            {
             "id": "",
             "value": {
              "sciId": {
               "id": "sciId",
               "value": "seaNMFCCodeLabel",
               "type": "string"
              },
              "text": {
               "id": "text",
               "value": "this.b_NMFCCode_lbl",
               "type": "expr"
              },
              "cls": {
               "id": "cls",
               "value": "sc-plat-label",
               "type": "string"
              },
              "defid": "label"
             },
             "type": "label"
            },
            {
             "id": "",
             "value": {
              "sciId": {
               "id": "sciId",
               "value": "seaNMFCCodeTrigger",
               "type": "string"
              },
              "triggerClass": {
               "id": "triggerClass",
               "value": "x-form-search-trigger",
               "type": "string"
              },
              "hideTrigger": {
               "id": "hideTrigger",
               "value": "this.hideTrigger('NMFCCode')",
               "type": "expr"
              },
              "readOnly": {
               "id": "readOnly",
               "value": "this.readOnly('NMFCCode')",
               "type": "expr"
              },
              "ctCls": {
               "id": "ctCls",
               "value": "sc-plat-triggerfield-text",
               "type": "string"
              },
              "fieldName": {
               "id": "fieldName",
               "value": "NMFCCode",
               "type": "string"
              },
              "onTriggerClick": {
               "id": "onTriggerClick",
               "value": "this.loadClassificationLookup",
               "type": "expr"
              },
              "scope": {
               "id": "scope",
               "value": "this",
               "type": "expr"
              },
              "bindingData": {
               "id": "bindingData",
               "value": {
                "sourceBinding": {
                 "id": "sourceBinding",
                 "value": "getItemDetails:Item.ClassificationCodes.NMFCCode",
                 "type": "string"
                },
                "targetBinding": {
                 "id": "targetBinding",
                 "value": [{
                  "id": "",
                  "value": "getManageItem:ItemList.Item.ClassificationCodes.NMFCCode",
                  "type": "string"
                 }],
                 "type": "array"
                },
                "defid": "object"
               },
               "type": "object"
              },
              "defid": "trigger"
             },
             "type": "trigger"
            },
            {
             "id": "",
             "value": {
              "sciId": {
               "id": "sciId",
               "value": "seaECCNNumberLabel",
               "type": "string"
              },
              "text": {
               "id": "text",
               "value": "this.b_ECCNNumber_lbl",
               "type": "expr"
              },
              "cls": {
               "id": "cls",
               "value": "sc-plat-label",
               "type": "string"
              },
              "defid": "label"
             },
             "type": "label"
            },
            {
             "id": "",
             "value": {
              "sciId": {
               "id": "sciId",
               "value": "seaECCNNumberTrigger",
               "type": "string"
              },
              "triggerClass": {
               "id": "triggerClass",
               "value": "x-form-search-trigger",
               "type": "string"
              },
              "hideTrigger": {
               "id": "hideTrigger",
               "value": "this.hideTrigger('ECCNNo')",
               "type": "expr"
              },
              "readOnly": {
               "id": "readOnly",
               "value": "this.readOnly('ECCNNo')",
               "type": "expr"
              },
              "ctCls": {
               "id": "ctCls",
               "value": "sc-plat-triggerfield-text",
               "type": "string"
              },
              "fieldName": {
               "id": "fieldName",
               "value": "ECCNNo",
               "type": "string"
              },
              "onTriggerClick": {
               "id": "onTriggerClick",
               "value": "this.loadClassificationLookup",
               "type": "expr"
              },
              "scope": {
               "id": "scope",
               "value": "this",
               "type": "expr"
              },
              "bindingData": {
               "id": "bindingData",
               "value": {
                "sourceBinding": {
                 "id": "sourceBinding",
                 "value": "getItemDetails:Item.ClassificationCodes.ECCNNo",
                 "type": "string"
                },
                "targetBinding": {
                 "id": "targetBinding",
                 "value": [{
                  "id": "",
                  "value": "getManageItem:ItemList.Item.ClassificationCodes.ECCNNo",
                  "type": "string"
                 }],
                 "type": "array"
                },
                "defid": "object"
               },
               "type": "object"
              },
              "defid": "trigger"
             },
             "type": "trigger"
            },
            {
             "id": "",
             "value": {
              "sciId": {
               "id": "sciId",
               "value": "seaNMFCClassLabel",
               "type": "string"
              },
              "text": {
               "id": "text",
               "value": "this.b_NMFCClass_lbl",
               "type": "expr"
              },
              "cls": {
               "id": "cls",
               "value": "sc-plat-label",
               "type": "string"
              },
              "defid": "label"
             },
             "type": "label"
            },
            {
             "id": "",
             "value": {
              "sciId": {
               "id": "sciId",
               "value": "seaNMFCClassTrigger",
               "type": "string"
              },
              "triggerClass": {
               "id": "triggerClass",
               "value": "x-form-search-trigger",
               "type": "string"
              },
              "hideTrigger": {
               "id": "hideTrigger",
               "value": "this.hideTrigger('NMFCClass')",
               "type": "expr"
              },
              "readOnly": {
               "id": "readOnly",
               "value": "this.readOnly('NMFCClass')",
               "type": "expr"
              },
              "ctCls": {
               "id": "ctCls",
               "value": "sc-plat-triggerfield-text",
               "type": "string"
              },
              "fieldName": {
               "id": "fieldName",
               "value": "NMFCClass",
               "type": "string"
              },
              "onTriggerClick": {
               "id": "onTriggerClick",
               "value": "this.loadClassificationLookup",
               "type": "expr"
              },
              "scope": {
               "id": "scope",
               "value": "this",
               "type": "expr"
              },
              "bindingData": {
               "id": "bindingData",
               "value": {
                "sourceBinding": {
                 "id": "sourceBinding",
                 "value": "getItemDetails:Item.ClassificationCodes.NMFCClass",
                 "type": "string"
                },
                "targetBinding": {
                 "id": "targetBinding",
                 "value": [{
                  "id": "",
                  "value": "getManageItem:ItemList.Item.ClassificationCodes.NMFCClass",
                  "type": "string"
                 }],
                 "type": "array"
                },
                "defid": "object"
               },
               "type": "object"
              },
              "defid": "trigger"
             },
             "type": "trigger"
            },
            {
             "id": "",
             "value": {
              "sciId": {
               "id": "sciId",
               "value": "seaUNSPSCLabel",
               "type": "string"
              },
              "text": {
               "id": "text",
               "value": "this.b_UNSPSC_lbl",
               "type": "expr"
              },
              "cls": {
               "id": "cls",
               "value": "sc-plat-label",
               "type": "string"
              },
              "defid": "label"
             },
             "type": "label"
            },
            {
             "id": "",
             "value": {
              "sciId": {
               "id": "sciId",
               "value": "seaUNSPSCTrigger",
               "type": "string"
              },
              "triggerClass": {
               "id": "triggerClass",
               "value": "x-form-search-trigger",
               "type": "string"
              },
              "hideTrigger": {
               "id": "hideTrigger",
               "value": "this.hideTrigger('UNSPSC')",
               "type": "expr"
              },
              "readOnly": {
               "id": "readOnly",
               "value": "this.readOnly('UNSPSC')",
               "type": "expr"
              },
              "ctCls": {
               "id": "ctCls",
               "value": "sc-plat-triggerfield-text",
               "type": "string"
              },
              "fieldName": {
               "id": "fieldName",
               "value": "UNSPSC",
               "type": "string"
              },
              "onTriggerClick": {
               "id": "onTriggerClick",
               "value": "this.loadClassificationLookup",
               "type": "expr"
              },
              "scope": {
               "id": "scope",
               "value": "this",
               "type": "expr"
              },
              "bindingData": {
               "id": "bindingData",
               "value": {
                "sourceBinding": {
                 "id": "sourceBinding",
                 "value": "getItemDetails:Item.ClassificationCodes.UNSPSC",
                 "type": "string"
                },
                "targetBinding": {
                 "id": "targetBinding",
                 "value": [{
                  "id": "",
                  "value": "getManageItem:ItemList.Item.ClassificationCodes.UNSPSC",
                  "type": "string"
                 }],
                 "type": "array"
                },
                "defid": "object"
               },
               "type": "object"
              },
              "defid": "trigger"
             },
             "type": "trigger"
            },
            {
             "id": "",
             "value": {
              "sciId": {
               "id": "sciId",
               "value": "seaNAICSCodeLabel",
               "type": "string"
              },
              "text": {
               "id": "text",
               "value": "this.b_NAICSCode_lbl",
               "type": "expr"
              },
              "cls": {
               "id": "cls",
               "value": "sc-plat-label",
               "type": "string"
              },
              "defid": "label"
             },
             "type": "label"
            },
            {
             "id": "",
             "value": {
              "sciId": {
               "id": "sciId",
               "value": "seaNAICSCodeTrigger",
               "type": "string"
              },
              "triggerClass": {
               "id": "triggerClass",
               "value": "x-form-search-trigger",
               "type": "string"
              },
              "hideTrigger": {
               "id": "hideTrigger",
               "value": "this.hideTrigger('NAICSCode')",
               "type": "expr"
              },
              "readOnly": {
               "id": "readOnly",
               "value": "this.readOnly('NAICSCode')",
               "type": "expr"
              },
              "ctCls": {
               "id": "ctCls",
               "value": "sc-plat-triggerfield-text",
               "type": "string"
              },
              "fieldName": {
               "id": "fieldName",
               "value": "NAICSCode",
               "type": "string"
              },
              "onTriggerClick": {
               "id": "onTriggerClick",
               "value": "this.loadClassificationLookup",
               "type": "expr"
              },
              "scope": {
               "id": "scope",
               "value": "this",
               "type": "expr"
              },
              "bindingData": {
               "id": "bindingData",
               "value": {
                "sourceBinding": {
                 "id": "sourceBinding",
                 "value": "getItemDetails:Item.ClassificationCodes.NAICSCode",
                 "type": "string"
                },
                "targetBinding": {
                 "id": "targetBinding",
                 "value": [{
                  "id": "",
                  "value": "getManageItem:ItemList.Item.ClassificationCodes.NAICSCode",
                  "type": "string"
                 }],
                 "type": "array"
                },
                "defid": "object"
               },
               "type": "object"
              },
              "defid": "trigger"
             },
             "type": "trigger"
            },
            {
             "id": "",
             "value": {
              "sciId": {
               "id": "sciId",
               "value": "seaTaxLabel",
               "type": "string"
              },
              "text": {
               "id": "text",
               "value": "this.b_TaxProductClass_lbl",
               "type": "expr"
              },
              "cls": {
               "id": "cls",
               "value": "sc-plat-label",
               "type": "string"
              },
              "defid": "label"
             },
             "type": "label"
            },
            {
             "id": "",
             "value": {
              "sciId": {
               "id": "sciId",
               "value": "seaTaxTrigger",
               "type": "string"
              },
              "triggerClass": {
               "id": "triggerClass",
               "value": "x-form-search-trigger",
               "type": "string"
              },
              "hideTrigger": {
               "id": "hideTrigger",
               "value": "this.hideTrigger('TaxProductCode')",
               "type": "expr"
              },
              "readOnly": {
               "id": "readOnly",
               "value": "this.readOnly('TaxProductCode')",
               "type": "expr"
              },
              "ctCls": {
               "id": "ctCls",
               "value": "sc-plat-triggerfield-text",
               "type": "string"
              },
              "fieldName": {
               "id": "fieldName",
               "value": "TaxProductCode",
               "type": "string"
              },
              "onTriggerClick": {
               "id": "onTriggerClick",
               "value": "this.loadClassificationLookup",
               "type": "expr"
              },
              "scope": {
               "id": "scope",
               "value": "this",
               "type": "expr"
              },
              "bindingData": {
               "id": "bindingData",
               "value": {
                "sourceBinding": {
                 "id": "sourceBinding",
                 "value": "getItemDetails:Item.ClassificationCodes.TaxProductCode",
                 "type": "string"
                },
                "targetBinding": {
                 "id": "targetBinding",
                 "value": [{
                  "id": "",
                  "value": "getManageItem:ItemList.Item.ClassificationCodes.TaxProductCode",
                  "type": "string"
                 }],
                 "type": "array"
                },
                "defid": "object"
               },
               "type": "object"
              },
              "defid": "trigger"
             },
             "type": "trigger"
            },
            {
             "id": "",
             "value": {
              "sciId": {
               "id": "sciId",
               "value": "seaHazardousLabel",
               "type": "string"
              },
              "text": {
               "id": "text",
               "value": "this.b_HazardousMaterialClass_lbl",
               "type": "expr"
              },
              "cls": {
               "id": "cls",
               "value": "sc-plat-label",
               "type": "string"
              },
              "defid": "label"
             },
             "type": "label"
            },
            {
             "id": "",
             "value": {
              "sciId": {
               "id": "sciId",
               "value": "seaHazardousTrigger",
               "type": "string"
              },
              "triggerClass": {
               "id": "triggerClass",
               "value": "x-form-search-trigger",
               "type": "string"
              },
              "hideTrigger": {
               "id": "hideTrigger",
               "value": "this.hideTrigger('HazmatClass')",
               "type": "expr"
              },
              "readOnly": {
               "id": "readOnly",
               "value": "this.readOnly('HazmatClass')",
               "type": "expr"
              },
              "ctCls": {
               "id": "ctCls",
               "value": "sc-plat-triggerfield-text",
               "type": "string"
              },
              "fieldName": {
               "id": "fieldName",
               "value": "HazmatClass",
               "type": "string"
              },
              "onTriggerClick": {
               "id": "onTriggerClick",
               "value": "this.loadClassificationLookup",
               "type": "expr"
              },
              "scope": {
               "id": "scope",
               "value": "this",
               "type": "expr"
              },
              "bindingData": {
               "id": "bindingData",
               "value": {
                "sourceBinding": {
                 "id": "sourceBinding",
                 "value": "getItemDetails:Item.ClassificationCodes.HazmatClass",
                 "type": "string"
                },
                "targetBinding": {
                 "id": "targetBinding",
                 "value": [{
                  "id": "",
                  "value": "getManageItem:ItemList.Item.ClassificationCodes.HazmatClass",
                  "type": "string"
                 }],
                 "type": "array"
                },
                "defid": "object"
               },
               "type": "object"
              },
              "defid": "trigger"
             },
             "type": "trigger"
            },
            {
             "id": "",
             "value": {
              "sciId": {
               "id": "sciId",
               "value": "seaModelLabel",
               "type": "string"
              },
              "text": {
               "id": "text",
               "value": "this.b_Model_lbl",
               "type": "expr"
              },
              "cls": {
               "id": "cls",
               "value": "sc-plat-label",
               "type": "string"
              },
              "defid": "label"
             },
             "type": "label"
            },
            {
             "id": "",
             "value": {
              "sciId": {
               "id": "sciId",
               "value": "seaModelTrigger",
               "type": "string"
              },
              "triggerClass": {
               "id": "triggerClass",
               "value": "x-form-search-trigger",
               "type": "string"
              },
              "hideTrigger": {
               "id": "hideTrigger",
               "value": "this.hideTrigger('Model')",
               "type": "expr"
              },
              "readOnly": {
               "id": "readOnly",
               "value": "this.readOnly('Model')",
               "type": "expr"
              },
              "ctCls": {
               "id": "ctCls",
               "value": "sc-plat-triggerfield-text",
               "type": "string"
              },
              "fieldName": {
               "id": "fieldName",
               "value": "Model",
               "type": "string"
              },
              "onTriggerClick": {
               "id": "onTriggerClick",
               "value": "this.loadClassificationLookup",
               "type": "expr"
              },
              "scope": {
               "id": "scope",
               "value": "this",
               "type": "expr"
              },
              "bindingData": {
               "id": "bindingData",
               "value": {
                "sourceBinding": {
                 "id": "sourceBinding",
                 "value": "getItemDetails:Item.ClassificationCodes.Model",
                 "type": "string"
                },
                "targetBinding": {
                 "id": "targetBinding",
                 "value": [{
                  "id": "",
                  "value": "getManageItem:ItemList.Item.ClassificationCodes.Model",
                  "type": "string"
                 }],
                 "type": "array"
                },
                "defid": "object"
               },
               "type": "object"
              },
              "defid": "trigger"
             },
             "type": "trigger"
            },
            {
             "id": "",
             "value": {
              "sciId": {
               "id": "sciId",
               "value": "label32",
               "type": "string"
              },
              "defid": "label"
             },
             "type": "label"
            },
            {
             "id": "",
             "value": {
              "sciId": {
               "id": "sciId",
               "value": "seaHazardousCheckbox",
               "type": "string"
              },
              "boxLabel": {
               "id": "boxLabel",
               "value": "this.b_IsHazardousItem_lbl",
               "type": "expr"
              },
              "ctCls": {
               "id": "ctCls",
               "value": "sc-plat-checkboxlabel",
               "type": "string"
              },
              "colspan": {
               "id": "colspan",
               "value": "2",
               "type": "number"
              },
              "bindingData": {
               "id": "bindingData",
               "value": {
                "checkedValue": {
                 "id": "checkedValue",
                 "value": "Y",
                 "type": "string"
                },
                "unCheckedValue": {
                 "id": "unCheckedValue",
                 "value": "N",
                 "type": "string"
                },
                "sourceBinding": {
                 "id": "sourceBinding",
                 "value": "getItemDetails:Item.PrimaryInformation.IsHazmat",
                 "type": "string"
                },
                "targetBinding": {
                 "id": "targetBinding",
                 "value": [{
                  "id": "",
                  "value": "getManageItem:ItemList.Item.PrimaryInformation.IsHazmat",
                  "type": "string"
                 }],
                 "type": "array"
                },
                "defid": "object"
               },
               "type": "object"
              },
              "defid": "checkbox"
             },
             "type": "checkbox"
            },
            {
             "id": "",
             "value": {
              "sciId": {
               "id": "sciId",
               "value": "seaCostClassificationLabel",
               "type": "string"
              },
              "text": {
               "id": "text",
               "value": "this.b_CostPostingClassification_lbl",
               "type": "expr"
              },
              "cls": {
               "id": "cls",
               "value": "sc-plat-label",
               "type": "string"
              },
              "defid": "label"
             },
             "type": "label"
            },
            {
             "id": "",
             "value": {
              "sciId": {
               "id": "sciId",
               "value": "seaCostClassificationCombo",
               "type": "string"
              },
              "displayField": {
               "id": "displayField",
               "value": "CodeShortDescription",
               "type": "string"
              },
              "valueField": {
               "id": "valueField",
               "value": "CodeValue",
               "type": "string"
              },
              "mode": {
               "id": "mode",
               "value": "local",
               "type": "string"
              },
              "triggerAction": {
               "id": "triggerAction",
               "value": "all",
               "type": "string"
              },
              "editable": {
               "id": "editable",
               "value": "false",
               "type": "boolean"
              },
              "cls": {
               "id": "cls",
               "value": "sbc-standard-combo",
               "type": "string"
              },
              "resizable": {
               "id": "resizable",
               "value": "true",
               "type": "boolean"
              },
              "ctCls": {
               "id": "ctCls",
               "value": "sc-plat-combo-selection",
               "type": "string"
              },
              "listClass": {
               "id": "listClass",
               "value": "sc-plat-combo-list-item",
               "type": "string"
              },
              "bindingData": {
               "id": "bindingData",
               "value": {
                "optionsBinding": {
                 "id": "optionsBinding",
                 "value": "getCommonCodeListForPosting:CommonCodeList.CommonCode",
                 "type": "string"
                },
                "sourceBinding": {
                 "id": "sourceBinding",
                 "value": "getItemDetails:Item.ClassificationCodes.PostingClassification",
                 "type": "string"
                },
                "targetBinding": {
                 "id": "targetBinding",
                 "value": "getManageItem:ItemList.Item.ClassificationCodes.PostingClassification",
                 "type": "string"
                },
                "defid": "object"
               },
               "type": "object"
              },
              "store": {
               "id": "store",
               "value": {
                "fields": {
                 "id": "fields",
                 "value": [{
                  "id": "",
                  "value": "CodeShortDescription",
                  "type": "string"
                 },
                 {
                  "id": "",
                  "value": "CodeValue",
                  "type": "string"
                 }],
                 "type": "array"
                },
                "sortInfo": {
                 "id": "sortInfo",
                 "value": {
                  "field": {
                   "id": "field",
                   "value": "CodeShortDescription",
                   "type": "string"
                  },
                  "direction": {
                   "id": "direction",
                   "value": "ASC",
                   "type": "string"
                  },
                  "defid": "object"
                 },
                 "type": "object"
                },
                "defid": "jsonstore"
               },
               "type": "jsonstore"
              },
              "defid": "combo"
             },
             "type": "combo"
            }],
            "type": "array"
           },
           "autoHeight": {
            "id": "autoHeight",
            "value": "true",
            "type": "boolean"
           },
           "border": {
            "id": "border",
            "value": "false",
            "type": "boolean"
           },
           "header": {
            "id": "header",
            "value": "false",
            "type": "boolean"
           },
           "autoWidth": {
            "id": "autoWidth",
            "value": "true",
            "type": "boolean"
           },
           "defaults": {
            "id": "defaults",
            "value": {
             "cls": {
              "id": "cls",
              "value": "x-panel-item",
              "type": "string"
             },
             "columnWidth": {
              "id": "columnWidth",
              "value": "0.25",
              "type": "float"
             },
             "defid": "defaults"
            },
            "type": "object"
           },
           "layoutConfig": {
            "id": "layoutConfig",
            "value": {
             "columns": {
              "id": "columns",
              "value": "4",
              "type": "number"
             },
             "defid": "tableLayoutConfig"
            },
            "type": "object"
           },
           "defid": "panel"
          },
          "type": "panel"
         }],
         "type": "array"
        },
        "border": {
         "id": "border",
         "value": "false",
         "type": "boolean"
        },
        "header": {
         "id": "header",
         "value": "true",
         "type": "boolean"
        },
        "title": {
         "id": "title",
         "value": "this.b_Standard_Classifications",
         "type": "expr"
        },
        "collapsible": {
         "id": "collapsible",
         "value": "false",
         "type": "boolean"
        },
        "sctype": {
         "id": "sctype",
         "value": "GroupPanel",
         "type": "string"
        },
        "layoutConfig": {
         "id": "layoutConfig",
         "value": {
          "columns": {
           "id": "columns",
           "value": "4",
           "type": "number"
          },
          "defid": "layoutConfig"
         },
         "type": "object"
        },
        "defid": "panel"
       },
       "type": "panel"
      },
      {
       "id": "",
       "value": {
        "sciId": {
         "id": "sciId",
         "value": "seaOrganiztionPanel",
         "type": "string"
        },
        "title": {
         "id": "title",
         "value": "this.b_Organization_Classifications",
         "type": "expr"
        },
        "layout": {
         "id": "layout",
         "value": "anchor",
         "type": "string"
        },
        "items": {
         "id": "items",
         "value": [{
          "id": "",
          "value": {
           "sciId": {
            "id": "sciId",
            "value": "seaOrganizationClassifications",
            "type": "string"
           },
           "layout": {
            "id": "layout",
            "value": "table",
            "type": "string"
           },
           "title": {
            "id": "title",
            "value": "Organization Classifications",
            "type": "string"
           },
           "items": {
            "id": "items",
            "value": [{
             "id": "",
             "value": {
              "sciId": {
               "id": "sciId",
               "value": "seaProductTypeLabel",
               "type": "string"
              },
              "text": {
               "id": "text",
               "value": "this.b_ProductLine_lbl",
               "type": "expr"
              },
              "cls": {
               "id": "cls",
               "value": "sc-plat-label",
               "type": "string"
              },
              "defid": "label"
             },
             "type": "label"
            },
            {
             "id": "",
             "value": {
              "sciId": {
               "id": "sciId",
               "value": "seaProductTypeTrigger",
               "type": "string"
              },
              "triggerClass": {
               "id": "triggerClass",
               "value": "x-form-search-trigger",
               "type": "string"
              },
              "hideTrigger": {
               "id": "hideTrigger",
               "value": "this.hideTrigger('ProductLine')",
               "type": "expr"
              },
              "readOnly": {
               "id": "readOnly",
               "value": "this.readOnly('ProductLine')",
               "type": "expr"
              },
              "ctCls": {
               "id": "ctCls",
               "value": "sc-plat-triggerfield-text",
               "type": "string"
              },
              "fieldName": {
               "id": "fieldName",
               "value": "ProductLine",
               "type": "string"
              },
              "onTriggerClick": {
               "id": "onTriggerClick",
               "value": "this.loadClassificationLookup",
               "type": "expr"
              },
              "scope": {
               "id": "scope",
               "value": "this",
               "type": "expr"
              },
              "bindingData": {
               "id": "bindingData",
               "value": {
                "sourceBinding": {
                 "id": "sourceBinding",
                 "value": "getItemDetails:Item.PrimaryInformation.ProductLine",
                 "type": "string"
                },
                "targetBinding": {
                 "id": "targetBinding",
                 "value": [{
                  "id": "",
                  "value": "getManageItem:ItemList.Item.PrimaryInformation.ProductLine",
                  "type": "string"
                 }],
                 "type": "array"
                },
                "defid": "object"
               },
               "type": "object"
              },
              "defid": "trigger"
             },
             "type": "trigger"
            },
            {
             "id": "",
             "value": {
              "sciId": {
               "id": "sciId",
               "value": "label33",
               "type": "string"
              },
              "defid": "label"
             },
             "type": "label"
            },
            {
             "id": "",
             "value": {
              "sciId": {
               "id": "sciId",
               "value": "seaItemTypeLabel",
               "type": "string"
              },
              "text": {
               "id": "text",
               "value": "this.b_ItemType_lbl",
               "type": "expr"
              },
              "cls": {
               "id": "cls",
               "value": "sc-plat-label",
               "type": "string"
              },
              "defid": "label"
             },
             "type": "label"
            },
            {
             "id": "",
             "value": {
              "sciId": {
               "id": "sciId",
               "value": "seaItemTypeTrigger",
               "type": "string"
              },
              "triggerClass": {
               "id": "triggerClass",
               "value": "x-form-search-trigger",
               "type": "string"
              },
              "hideTrigger": {
               "id": "hideTrigger",
               "value": "this.hideTrigger('ItemType')",
               "type": "expr"
              },
              "readOnly": {
               "id": "readOnly",
               "value": "this.readOnly('ItemType')",
               "type": "expr"
              },
              "ctCls": {
               "id": "ctCls",
               "value": "sc-plat-triggerfield-text",
               "type": "string"
              },
              "onTriggerClick": {
               "id": "onTriggerClick",
               "value": "this.loadClassificationLookup",
               "type": "expr"
              },
              "scope": {
               "id": "scope",
               "value": "this",
               "type": "expr"
              },
              "fieldName": {
               "id": "fieldName",
               "value": "ItemType",
               "type": "string"
              },
              "bindingData": {
               "id": "bindingData",
               "value": {
                "sourceBinding": {
                 "id": "sourceBinding",
                 "value": "getItemDetails:Item.PrimaryInformation.ItemType",
                 "type": "string"
                },
                "targetBinding": {
                 "id": "targetBinding",
                 "value": [{
                  "id": "",
                  "value": "getManageItem:ItemList.Item.PrimaryInformation.ItemType",
                  "type": "string"
                 }],
                 "type": "array"
                },
                "defid": "object"
               },
               "type": "object"
              },
              "defid": "trigger"
             },
             "type": "trigger"
            }],
            "type": "array"
           },
           "autoHeight": {
            "id": "autoHeight",
            "value": "true",
            "type": "boolean"
           },
           "autoWidth": {
            "id": "autoWidth",
            "value": "true",
            "type": "boolean"
           },
           "header": {
            "id": "header",
            "value": "false",
            "type": "boolean"
           },
           "border": {
            "id": "border",
            "value": "false",
            "type": "boolean"
           },
           "defaults": {
            "id": "defaults",
            "value": {
             "cls": {
              "id": "cls",
              "value": "x-panel-item",
              "type": "string"
             },
             "defid": "defaults"
            },
            "type": "object"
           },
           "layoutConfig": {
            "id": "layoutConfig",
            "value": {
             "columns": {
              "id": "columns",
              "value": "5",
              "type": "number"
             },
             "defid": "tableLayoutConfig"
            },
            "type": "object"
           },
           "defid": "panel"
          },
          "type": "panel"
         }],
         "type": "array"
        },
        "collapsible": {
         "id": "collapsible",
         "value": "false",
         "type": "boolean"
        },
        "sctype": {
         "id": "sctype",
         "value": "GroupPanel",
         "type": "string"
        },
        "layoutConfig": {
         "id": "layoutConfig",
         "value": {
          "columns": {
           "id": "columns",
           "value": "4",
           "type": "number"
          },
          "defid": "layoutConfig"
         },
         "type": "object"
        },
        "defid": "panel"
       },
       "type": "panel"
      },
      {
       "id": "",
       "value": {
        "sciId": {
         "id": "sciId",
         "value": "seaOperationalPanel",
         "type": "string"
        },
        "title": {
         "id": "title",
         "value": "this.b_Operational_Classifications",
         "type": "expr"
        },
        "layout": {
         "id": "layout",
         "value": "anchor",
         "type": "string"
        },
        "items": {
         "id": "items",
         "value": [{
          "id": "",
          "value": {
           "sciId": {
            "id": "sciId",
            "value": "seaOperationalClassifications",
            "type": "string"
           },
           "layout": {
            "id": "layout",
            "value": "table",
            "type": "string"
           },
           "title": {
            "id": "title",
            "value": "Operational Classifications",
            "type": "string"
           },
           "autoHeight": {
            "id": "autoHeight",
            "value": "true",
            "type": "boolean"
           },
           "autoWidth": {
            "id": "autoWidth",
            "value": "true",
            "type": "boolean"
           },
           "items": {
            "id": "items",
            "value": [{
             "id": "",
             "value": {
              "sciId": {
               "id": "sciId",
               "value": "seaStorageTypeLabel",
               "type": "string"
              },
              "text": {
               "id": "text",
               "value": "this.b_StorageType_lbl",
               "type": "expr"
              },
              "cls": {
               "id": "cls",
               "value": "sc-plat-label",
               "type": "string"
              },
              "defid": "label"
             },
             "type": "label"
            },
            {
             "id": "",
             "value": {
              "sciId": {
               "id": "sciId",
               "value": "seaStorageTypeTrigger",
               "type": "string"
              },
              "triggerClass": {
               "id": "triggerClass",
               "value": "x-form-search-trigger",
               "type": "string"
              },
              "hideTrigger": {
               "id": "hideTrigger",
               "value": "this.hideTrigger('StorageType')",
               "type": "expr"
              },
              "readOnly": {
               "id": "readOnly",
               "value": "this.readOnly('StorageType')",
               "type": "expr"
              },
              "ctCls": {
               "id": "ctCls",
               "value": "sc-plat-triggerfield-text",
               "type": "string"
              },
              "fieldName": {
               "id": "fieldName",
               "value": "StorageType",
               "type": "string"
              },
              "onTriggerClick": {
               "id": "onTriggerClick",
               "value": "this.loadClassificationLookup",
               "type": "expr"
              },
              "scope": {
               "id": "scope",
               "value": "this",
               "type": "expr"
              },
              "bindingData": {
               "id": "bindingData",
               "value": {
                "sourceBinding": {
                 "id": "sourceBinding",
                 "value": "getItemDetails:Item.ClassificationCodes.StorageType",
                 "type": "string"
                },
                "targetBinding": {
                 "id": "targetBinding",
                 "value": [{
                  "id": "",
                  "value": "getManageItem:ItemList.Item.ClassificationCodes.StorageType",
                  "type": "string"
                 }],
                 "type": "array"
                },
                "defid": "object"
               },
               "type": "object"
              },
              "defid": "trigger"
             },
             "type": "trigger"
            },
            {
             "id": "",
             "value": {
              "sciId": {
               "id": "sciId",
               "value": "seaPickingTypeLabel",
               "type": "string"
              },
              "text": {
               "id": "text",
               "value": "this.b_PickingType_lbl",
               "type": "expr"
              },
              "cls": {
               "id": "cls",
               "value": "sc-plat-label",
               "type": "string"
              },
              "defid": "label"
             },
             "type": "label"
            },
            {
             "id": "",
             "value": {
              "sciId": {
               "id": "sciId",
               "value": "seaPickingTypeTrigger",
               "type": "string"
              },
              "triggerClass": {
               "id": "triggerClass",
               "value": "x-form-search-trigger",
               "type": "string"
              },
              "hideTrigger": {
               "id": "hideTrigger",
               "value": "this.hideTrigger('PickingType')",
               "type": "expr"
              },
              "ctCls": {
               "id": "ctCls",
               "value": "sc-plat-triggerfield-text",
               "type": "string"
              },
              "readOnly": {
               "id": "readOnly",
               "value": "this.readOnly('PickingType')",
               "type": "expr"
              },
              "fieldName": {
               "id": "fieldName",
               "value": "PickingType",
               "type": "string"
              },
              "onTriggerClick": {
               "id": "onTriggerClick",
               "value": "this.loadClassificationLookup",
               "type": "expr"
              },
              "scope": {
               "id": "scope",
               "value": "this",
               "type": "expr"
              },
              "bindingData": {
               "id": "bindingData",
               "value": {
                "sourceBinding": {
                 "id": "sourceBinding",
                 "value": "getItemDetails:Item.ClassificationCodes.PickingType",
                 "type": "string"
                },
                "targetBinding": {
                 "id": "targetBinding",
                 "value": [{
                  "id": "",
                  "value": "getManageItem:ItemList.Item.ClassificationCodes.PickingType",
                  "type": "string"
                 }],
                 "type": "array"
                },
                "defid": "object"
               },
               "type": "object"
              },
              "defid": "trigger"
             },
             "type": "trigger"
            },
            {
             "id": "",
             "value": {
              "sciId": {
               "id": "sciId",
               "value": "seaVelocityCodeLabel",
               "type": "string"
              },
              "text": {
               "id": "text",
               "value": "this.b_VelocityCode_lbl",
               "type": "expr"
              },
              "cls": {
               "id": "cls",
               "value": "sc-plat-label",
               "type": "string"
              },
              "defid": "label"
             },
             "type": "label"
            },
            {
             "id": "",
             "value": {
              "sciId": {
               "id": "sciId",
               "value": "seaVelocityCodeCombo",
               "type": "string"
              },
              "displayField": {
               "id": "displayField",
               "value": "CodeShortDescription",
               "type": "string"
              },
              "valueField": {
               "id": "valueField",
               "value": "CodeValue",
               "type": "string"
              },
              "mode": {
               "id": "mode",
               "value": "local",
               "type": "string"
              },
              "triggerAction": {
               "id": "triggerAction",
               "value": "all",
               "type": "string"
              },
              "editable": {
               "id": "editable",
               "value": "false",
               "type": "boolean"
              },
              "ctCls": {
               "id": "ctCls",
               "value": "sc-plat-combo-selection",
               "type": "string"
              },
              "listClass": {
               "id": "listClass",
               "value": "sc-plat-combo-list-item",
               "type": "string"
              },
              "cls": {
               "id": "cls",
               "value": "sbc-standard-combo",
               "type": "string"
              },
              "resizable": {
               "id": "resizable",
               "value": "true",
               "type": "boolean"
              },
              "bindingData": {
               "id": "bindingData",
               "value": {
                "optionsBinding": {
                 "id": "optionsBinding",
                 "value": "getCommonCodeListForVelocityCode:CommonCodeList.CommonCode",
                 "type": "string"
                },
                "sourceBinding": {
                 "id": "sourceBinding",
                 "value": "getItemDetails:Item.ClassificationCodes.VelocityCode",
                 "type": "string"
                },
                "targetBinding": {
                 "id": "targetBinding",
                 "value": "getManageItem:ItemList.Item.ClassificationCodes.VelocityCode",
                 "type": "string"
                },
                "defid": "object"
               },
               "type": "object"
              },
              "store": {
               "id": "store",
               "value": {
                "fields": {
                 "id": "fields",
                 "value": [{
                  "id": "",
                  "value": "CodeShortDescription",
                  "type": "string"
                 },
                 {
                  "id": "",
                  "value": "CodeValue",
                  "type": "string"
                 }],
                 "type": "array"
                },
                "sortInfo": {
                 "id": "sortInfo",
                 "value": {
                  "field": {
                   "id": "field",
                   "value": "CodeShortDescription",
                   "type": "string"
                  },
                  "direction": {
                   "id": "direction",
                   "value": "ASC",
                   "type": "string"
                  },
                  "defid": "object"
                 },
                 "type": "object"
                },
                "defid": "jsonstore"
               },
               "type": "jsonstore"
              },
              "defid": "combo"
             },
             "type": "combo"
            },
            {
             "id": "",
             "value": {
              "sciId": {
               "id": "sciId",
               "value": "label31",
               "type": "string"
              },
              "defid": "label"
             },
             "type": "label"
            },
            {
             "id": "",
             "value": {
              "sciId": {
               "id": "sciId",
               "value": "seaOperationalCheckBox",
               "type": "string"
              },
              "boxLabel": {
               "id": "boxLabel",
               "value": "this.b_OperationConfigurationComplete_Y",
               "type": "expr"
              },
              "ctCls": {
               "id": "ctCls",
               "value": "sc-plat-checkboxlabel",
               "type": "string"
              },
              "colspan": {
               "id": "colspan",
               "value": "2",
               "type": "number"
              },
              "bindingData": {
               "id": "bindingData",
               "value": {
                "sourceBinding": {
                 "id": "sourceBinding",
                 "value": "getItemDetails:Item.ClassificationCodes.OperationalConfigurationComplete",
                 "type": "string"
                },
                "targetBinding": {
                 "id": "targetBinding",
                 "value": [{
                  "id": "",
                  "value": "getManageItem:ItemList.Item.ClassificationCodes.OperationalConfigurationComplete",
                  "type": "string"
                 }],
                 "type": "array"
                },
                "checkedValue": {
                 "id": "checkedValue",
                 "value": "Y",
                 "type": "string"
                },
                "unCheckedValue": {
                 "id": "unCheckedValue",
                 "value": "N",
                 "type": "string"
                },
                "defid": "object"
               },
               "type": "object"
              },
              "defid": "checkbox"
             },
             "type": "checkbox"
            }],
            "type": "array"
           },
           "header": {
            "id": "header",
            "value": "false",
            "type": "boolean"
           },
           "border": {
            "id": "border",
            "value": "false",
            "type": "boolean"
           },
           "defaults": {
            "id": "defaults",
            "value": {
             "cls": {
              "id": "cls",
              "value": "x-panel-item",
              "type": "string"
             },
             "defid": "defaults"
            },
            "type": "object"
           },
           "layoutConfig": {
            "id": "layoutConfig",
            "value": {
             "columns": {
              "id": "columns",
              "value": "4",
              "type": "number"
             },
             "defid": "tableLayoutConfig"
            },
            "type": "object"
           },
           "defid": "panel"
          },
          "type": "panel"
         }],
         "type": "array"
        },
        "collapsible": {
         "id": "collapsible",
         "value": "false",
         "type": "boolean"
        },
        "sctype": {
         "id": "sctype",
         "value": "GroupPanel",
         "type": "string"
        },
        "layoutConfig": {
         "id": "layoutConfig",
         "value": {
          "columns": {
           "id": "columns",
           "value": "4",
           "type": "number"
          },
          "defid": "layoutConfig"
         },
         "type": "object"
        },
        "defid": "panel"
       },
       "type": "panel"
      }],
      "type": "array"
     },
     "sctype": {
      "id": "sctype",
      "value": "ScreenMainPanel",
      "type": "string"
     },
     "header": {
      "id": "header",
      "value": "true",
      "type": "boolean"
     },
     "layoutConfig": {
      "id": "layoutConfig",
      "value": {
       "columns": {
        "id": "columns",
        "value": "4",
        "type": "number"
       },
       "defid": "layoutConfig"
      },
      "type": "object"
     },
     "defid": "panel"
    },
    "type": "panel"
   }],
   "type": "array"
  },
  "border": {
   "id": "border",
   "value": "false",
   "type": "boolean"
  },
  "sctype": {
   "id": "sctype",
   "value": "ScreenBasePanel",
   "type": "string"
  },
  "defid": "screen"
 },
 "version": "0.3.0b",
 "type": "SCREEN",
 "dataSources": {}
}